Assignment 4
…
geo
BE211
Arr. Antwerpen

geo
BE212
Arr. Mechelen

geo
BE213
Arr. Turnhout

[1] 30058     3

# A tibble: 30,058 × 3
   geo   time     gdp_n3
   <chr> <chr>     <dbl>
 1 AL011 2008  551130000
 2 AL011 2009  582160000
 3 AL011 2010  664070000
 4 AL011 2011  631170000
 5 AL011 2012  717600000
 6 AL011 2013  696860000
 7 AL011 2014  735600000
 8 AL011 2015  788630000
 9 AL011 2016  801980000
10 AL011 2017  800660000
# ℹ 30,048 more rows
…
               code
             <char>
1: nama_10r_3popgdp

ii

#iii-v

[1] 30038     3

# A tibble: 30,038 × 3
   geo   time  pop_n3
   <chr> <chr>  <dbl>
 1 AL011 2001  186720
 2 AL011 2002  182380
 3 AL011 2003  178710
 4 AL011 2004  174710
 5 AL011 2005  170370
 6 AL011 2006  165610
 7 AL011 2007  160540
 8 AL011 2008  155390
 9 AL011 2009  150430
10 AL011 2010  146140
# ℹ 30,028 more rows
…
Oppgave 9

# A tibble: 5,724 × 10
   n2    time  n1    nc    nc_name gini_n2 pop_n2    gdp_n2 gdp_pc_n2 num_reg_n2
   <chr> <chr> <chr> <chr> <chr>     <dbl>  <dbl>     <dbl>     <dbl>      <int>
 1 AL01  2008  AL0   AL    Albania   0.166 889890    4.45e9     4997.          5
 2 AL01  2009  AL0   AL    Albania   0.153 879500    4.66e9     5297.          5
 3 AL01  2010  AL0   AL    Albania   0.159 871760    5.25e9     6022.          5
 4 AL01  2011  AL0   AL    Albania   0.148 864870    5.28e9     6104.          5
 5 AL01  2012  AL0   AL    Albania   0.119 857090    5.40e9     6304.          5
 6 AL01  2013  AL0   AL    Albania   0.122 848960    5.22e9     6153.          5
 7 AL01  2014  AL0   AL    Albania   0.103 840680    5.36e9     6371.          5
 8 AL01  2015  AL0   AL    Albania   0.114 833690    5.69e9     6824.          5
 9 AL01  2016  AL0   AL    Albania   0.109 828940    5.74e9     6922.          5
10 AL01  2017  AL0   AL    Albania   0.121 823370    5.90e9     7169.          5
# ℹ 5,714 more rows
…
Oppgave 41

[1] "Antall positive koeffisienter: 132"

Oppgave 42

`summarise()` has grouped output by 'nc_name'. You can override using the
`.groups` argument.

# A tibble: 218 × 4
# Groups:   nc_name [27]
   nc_name n2    gjennomsnitt       median
   <chr>   <chr>        <dbl>        <dbl>
 1 Albania AL01  -0.00000888  -0.00000888 
 2 Albania AL02  -0.0000188   -0.0000188  
 3 Albania AL03   0.00000970   0.00000970 
 4 Belgia  BE21  -0.00000150  -0.00000150 
 5 Belgia  BE22  -0.00000312  -0.00000312 
 6 Belgia  BE23   0.00000202   0.00000202 
 7 Belgia  BE24   0.00000132   0.00000132 
 8 Belgia  BE25   0.000000207  0.000000207
 9 Belgia  BE32  -0.00000178  -0.00000178 
10 Belgia  BE33  -0.000000486 -0.000000486
# ℹ 208 more rows
…
